<?xml version="1.0" encoding="UTF-8" standalone="no"?>
<svg
   xmlns:dc="http://purl.org/dc/elements/1.1/"
   xmlns:cc="http://creativecommons.org/ns#"
   xmlns:rdf="http://www.w3.org/1999/02/22-rdf-syntax-ns#"
   xmlns:svg="http://www.w3.org/2000/svg"
   xmlns="http://www.w3.org/2000/svg"
   xmlns:sodipodi="http://sodipodi.sourceforge.net/DTD/sodipodi-0.dtd"
   xmlns:inkscape="http://www.inkscape.org/namespaces/inkscape"
   sodipodi:docname="forward_KL.svg"
   inkscape:version="1.0alpha2 (863a58d, 2019-08-17)"
   id="svg8"
   version="1.1"
   viewBox="0 0 214.83892 174.10817"
   height="174.10817mm"
   width="214.83891mm">
  <defs
     id="defs2" />
  <sodipodi:namedview
     fit-margin-bottom="0"
     fit-margin-right="0"
     fit-margin-left="0"
     fit-margin-top="0"
     inkscape:window-maximized="0"
     inkscape:window-y="23"
     inkscape:window-x="0"
     inkscape:window-height="907"
     inkscape:window-width="1789"
     showgrid="false"
     inkscape:document-rotation="0"
     inkscape:current-layer="layer1"
     inkscape:document-units="mm"
     inkscape:cy="468.57143"
     inkscape:cx="674.28571"
     inkscape:zoom="0.7"
     inkscape:pageshadow="2"
     inkscape:pageopacity="0.0"
     borderopacity="1.0"
     bordercolor="#666666"
     pagecolor="#ffffff"
     id="base" />
  <metadata
     id="metadata5">
    <rdf:RDF>
      <cc:Work
         rdf:about="">
        <dc:format>image/svg+xml</dc:format>
        <dc:type
           rdf:resource="http://purl.org/dc/dcmitype/StillImage" />
        <dc:title></dc:title>
      </cc:Work>
    </rdf:RDF>
  </metadata>
  <g
     transform="translate(137.85321,-14.31322)"
     id="layer1"
     inkscape:groupmode="layer"
     inkscape:label="Calque 1">
    <text
       id="text899"
       y="24.09037"
       x="-30.485426"
       style="font-style:normal;font-variant:normal;font-weight:normal;font-stretch:normal;font-size:10.5833px;line-height:1;font-family:'Daniel Black';-inkscape-font-specification:'Daniel Black, ';text-align:center;letter-spacing:0px;word-spacing:0px;text-anchor:middle;stroke-width:0.264583"
       xml:space="preserve"><tspan
         style="font-style:normal;font-variant:normal;font-weight:normal;font-stretch:normal;font-family:'Daniel Black';-inkscape-font-specification:'Daniel Black, ';stroke-width:0.264583"
         y="24.09037"
         x="-30.485422"
         id="tspan897"
         sodipodi:role="line">0ptimising forward KL-divergence</tspan></text>
    <text
       id="text903"
       y="173.17303"
       x="-114.83244"
       style="font-size:10.5833px;line-height:1;font-family:'News Cycle';-inkscape-font-specification:'News Cycle';text-align:center;letter-spacing:0px;word-spacing:0px;text-anchor:middle;stroke-width:0.264583"
       xml:space="preserve"><tspan
         style="stroke-width:0.264583"
         y="173.17303"
         x="-114.83244"
         id="tspan901"
         sodipodi:role="line" /></text>
    <text
       xml:space="preserve"
       style="font-style:normal;font-variant:normal;font-weight:normal;font-stretch:normal;font-size:10.5833px;line-height:1;font-family:'Daniel Black';-inkscape-font-specification:'Daniel Black, ';text-align:center;letter-spacing:0px;word-spacing:0px;text-anchor:middle;stroke-width:0.264583"
       x="-30.485426"
       y="172.25705"
       id="text907"><tspan
         sodipodi:role="line"
         id="tspan905"
         x="-30.485426"
         y="172.25705"
         style="font-style:normal;font-variant:normal;font-weight:normal;font-stretch:normal;font-family:'Daniel Black';-inkscape-font-specification:'Daniel Black, ';stroke-width:0.264583">Mean seeking</tspan><tspan
         id="tspan909"
         sodipodi:role="line"
         x="-30.485426"
         y="182.84035"
         style="font-style:normal;font-variant:normal;font-weight:normal;font-stretch:normal;font-family:'Daniel Black';-inkscape-font-specification:'Daniel Black, ';stroke-width:0.264583">Moment projecting</tspan></text>
    <path
       style="color:#000000;font-style:normal;font-variant:normal;font-weight:normal;font-stretch:normal;font-size:medium;line-height:normal;font-family:sans-serif;font-variant-ligatures:normal;font-variant-position:normal;font-variant-caps:normal;font-variant-numeric:normal;font-variant-alternates:normal;font-variant-east-asian:normal;font-feature-settings:normal;font-variation-settings:normal;text-indent:0;text-align:start;text-decoration:none;text-decoration-line:none;text-decoration-style:solid;text-decoration-color:#000000;letter-spacing:normal;word-spacing:normal;text-transform:none;writing-mode:lr-tb;direction:ltr;text-orientation:mixed;dominant-baseline:auto;baseline-shift:baseline;text-anchor:start;white-space:normal;shape-padding:0;shape-margin:0;inline-size:0;clip-rule:nonzero;display:inline;overflow:visible;visibility:visible;opacity:1;isolation:auto;mix-blend-mode:normal;color-interpolation:sRGB;color-interpolation-filters:linearRGB;solid-color:#000000;solid-opacity:1;vector-effect:none;fill:#80b3ff;fill-opacity:1;fill-rule:nonzero;stroke:none;stroke-width:2;stroke-linecap:butt;stroke-linejoin:miter;stroke-miterlimit:4;stroke-dasharray:none;stroke-dashoffset:0;stroke-opacity:1;color-rendering:auto;image-rendering:auto;shape-rendering:auto;text-rendering:auto;enable-background:accumulate;stop-color:#000000;stop-opacity:1"
       d="m -26.948075,69.176262 c -9.57565,0.194094 -19.478656,3.214481 -26.45445,10.00883 -6.757768,7.14117 -11.286237,15.960662 -16.421974,24.254468 -5.880858,9.88831 -11.29557,20.07063 -17.750529,29.60584 -5.181153,7.45966 -11.582007,14.51626 -20.031602,18.25816 -2.53956,1.19197 -5.31893,1.89336 -7.94917,2.72223 -0.66821,1.21661 1.35131,2.31003 2.17303,1.32284 11.97665,-3.14323 21.940824,-11.78952 28.289628,-22.23891 10.604063,-16.32599 18.836471,-34.160229 30.682176,-49.679551 5.148266,-6.826081 13.209497,-11.155988 21.589781,-12.461894 8.105215,-1.272376 16.919322,0.508595 23.254478,5.914661 6.5194371,5.409204 10.53547906,13.066171 14.2299601,20.531608 5.9055809,12.223036 9.8008679,25.433746 17.1078809,36.959256 6.923101,10.75616 18.951486,17.88003 31.625938,19.21779 1.020113,0.0478 2.13209,0.30529 3.102119,0.11397 1.05022,-1.08904 -0.679351,-2.89167 -1.884539,-2.15258 C 39.765811,150.61556 25.984269,140.8149 19.866168,127.30587 13.573499,114.12406 9.3091729,99.946081 1.4132403,87.556798 -2.7733279,80.56776 -8.641247,74.175596 -16.371479,71.156895 c -3.359785,-1.300437 -6.966394,-2.040901 -10.576596,-1.980633 z"
       id="path847-7"
       inkscape:connector-curvature="0" />
    <path
       style="color:#000000;font-style:normal;font-variant:normal;font-weight:normal;font-stretch:normal;font-size:medium;line-height:normal;font-family:sans-serif;font-variant-ligatures:normal;font-variant-position:normal;font-variant-caps:normal;font-variant-numeric:normal;font-variant-alternates:normal;font-variant-east-asian:normal;font-feature-settings:normal;font-variation-settings:normal;text-indent:0;text-align:start;text-decoration:none;text-decoration-line:none;text-decoration-style:solid;text-decoration-color:#000000;letter-spacing:normal;word-spacing:normal;text-transform:none;writing-mode:lr-tb;direction:ltr;text-orientation:mixed;dominant-baseline:auto;baseline-shift:baseline;text-anchor:start;white-space:normal;shape-padding:0;shape-margin:0;inline-size:0;clip-rule:nonzero;display:inline;overflow:visible;visibility:visible;opacity:1;isolation:auto;mix-blend-mode:normal;color-interpolation:sRGB;color-interpolation-filters:linearRGB;solid-color:#000000;solid-opacity:1;vector-effect:none;fill:#44aa00;fill-opacity:1;fill-rule:nonzero;stroke:none;stroke-width:2;stroke-linecap:butt;stroke-linejoin:miter;stroke-miterlimit:4;stroke-dasharray:none;stroke-dashoffset:0;stroke-opacity:1;color-rendering:auto;image-rendering:auto;shape-rendering:auto;text-rendering:auto;enable-background:accumulate;stop-color:#000000;stop-opacity:1"
       d="m -68.4012,45.971184 c -6.032634,0.320252 -10.976042,5.325154 -12.558594,10.947266 -5.761172,17.568432 -8.203036,35.962391 -12.290415,53.94218 -2.567924,12.06681 -5.559796,24.42766 -12.522181,34.81237 -2.00929,3.04001 -4.5952,5.98039 -8.17373,7.12631 -0.62644,0.30161 -1.62122,0.84624 -1.51368,1.60937 1.03455,1.21696 2.69209,0.14251 3.76876,-0.45352 5.65061,-2.9091 9.00312,-8.64805 11.68438,-14.16952 6.091504,-12.75834 8.153874,-26.87372 11.161194,-40.556421 3.098279,-14.96102 5.405489,-30.233549 11.087497,-44.501445 1.579255,-3.432968 4.517657,-6.835542 8.540363,-7.078855 4.356077,-0.199311 8.139007,3.188972 9.525547,7.139167 2.609114,5.890721 4.233213,12.151091 5.999691,18.329054 3.627902,13.630163 5.733192,27.59386 8.204125,41.46145 1.909762,8.98872 4.798693,18.1144 10.72774,25.31109 3.300137,3.56643 8.96313,4.98185 13.374821,2.69053 4.740426,-2.13327 7.563537,-6.82415 9.653063,-11.36222 5.2691927,-10.9553 6.1269636,-23.37893 10.8704657,-34.520514 1.1855548,-2.465006 2.761103,-5.314349 5.6221388,-6.01904 3.502508,-0.825545 7.0989645,1.224938 8.9501425,4.15603 9.060241,11.606364 12.43191,26.328364 19.937772,38.826284 4.272199,6.96219 9.504439,13.66896 16.605197,17.92176 1.677221,0.90642 3.495688,1.91867 5.441406,1.90039 0.902715,-0.06 1.322519,-1.22061 0.513672,-1.72656 -1.277809,-0.98394 -3.08552,-0.63166 -4.402344,-1.58203 -5.667177,-2.78109 -9.599566,-7.94492 -13.33731,-12.8498 C 28.863149,123.905 25.642394,106.94423 15.290726,93.979735 12.671746,90.728605 8.6051056,87.983568 4.2491906,88.727044 c -3.25634402,0.551787 -5.6204117,3.293621 -6.7850185,6.238608 -2.063789,4.660101 -3.0066033,9.705238 -4.2827606,14.614028 -2.1367425,9.08803 -4.3516935,18.49266 -9.9053305,26.19477 -2.071661,3.0338 -5.113172,5.96018 -9.007246,6.05636 -3.548025,0.22613 -6.955394,-1.75635 -8.885482,-4.67599 -3.907771,-5.02928 -5.798569,-11.24318 -7.513325,-17.28295 -3.260625,-12.85853 -4.036107,-26.209158 -7.495106,-39.026325 -2.316752,-9.635723 -4.790531,-19.390021 -9.510068,-28.173052 -2.025752,-3.288251 -5.168293,-6.522121 -9.266054,-6.701309 z"
       id="path851-0"
       inkscape:connector-curvature="0" />
    <text
       xml:space="preserve"
       style="font-style:normal;font-variant:normal;font-weight:normal;font-stretch:normal;font-size:14.1111px;line-height:1;font-family:'Daniel Black';-inkscape-font-specification:'Daniel Black, ';text-align:center;letter-spacing:0px;word-spacing:0px;text-anchor:middle;opacity:1;stroke-width:0.264583;stop-opacity:1"
       x="-79.470001"
       y="49.442692"
       id="text873-0"><tspan
         sodipodi:role="line"
         id="tspan871-5"
         x="-79.470001"
         y="49.442692"
         style="font-style:normal;font-variant:normal;font-weight:normal;font-stretch:normal;font-family:'Daniel Black';-inkscape-font-specification:'Daniel Black, ';stroke-width:0.264583">P(z|D)</tspan></text>
    <text
       xml:space="preserve"
       style="font-style:normal;font-variant:normal;font-weight:normal;font-stretch:normal;font-size:14.1111px;line-height:1;font-family:'Daniel Black';-inkscape-font-specification:'Daniel Black, ';text-align:center;letter-spacing:0px;word-spacing:0px;text-anchor:middle;opacity:1;stroke-width:0.264583;stop-opacity:1"
       x="27.619339"
       y="71.352608"
       id="text877-6"><tspan
         sodipodi:role="line"
         id="tspan875-7"
         x="27.619337"
         y="71.352608"
         style="font-style:normal;font-variant:normal;font-weight:normal;font-stretch:normal;font-family:'Daniel Black';-inkscape-font-specification:'Daniel Black, ';stroke-width:0.264583">q(z|D,w,a)</tspan></text>
    <path
       style="color:#000000;font-style:normal;font-variant:normal;font-weight:normal;font-stretch:normal;font-size:medium;line-height:normal;font-family:sans-serif;font-variant-ligatures:normal;font-variant-position:normal;font-variant-caps:normal;font-variant-numeric:normal;font-variant-alternates:normal;font-variant-east-asian:normal;font-feature-settings:normal;font-variation-settings:normal;text-indent:0;text-align:start;text-decoration:none;text-decoration-line:none;text-decoration-style:solid;text-decoration-color:#000000;letter-spacing:normal;word-spacing:normal;text-transform:none;writing-mode:lr-tb;direction:ltr;text-orientation:mixed;dominant-baseline:auto;baseline-shift:baseline;text-anchor:start;white-space:normal;shape-padding:0;shape-margin:0;inline-size:0;clip-rule:nonzero;display:inline;overflow:visible;visibility:visible;opacity:1;isolation:auto;mix-blend-mode:normal;color-interpolation:sRGB;color-interpolation-filters:linearRGB;solid-color:#000000;solid-opacity:1;vector-effect:none;fill:#000000;fill-opacity:1;fill-rule:nonzero;stroke:none;stroke-width:2;stroke-linecap:butt;stroke-linejoin:miter;stroke-miterlimit:4;stroke-dasharray:none;stroke-dashoffset:0;stroke-opacity:1;color-rendering:auto;image-rendering:auto;shape-rendering:auto;text-rendering:auto;enable-background:accumulate;stop-color:#000000;stop-opacity:1"
       d="m -114.25666,31.781731 c -1.65871,1.083259 -0.761,3.248094 -0.907,4.857391 -0.15343,28.364058 0.0941,56.730219 -0.22641,85.093088 -0.20832,11.26605 -1.21897,22.49539 -1.75723,33.74679 58.098314,-0.49154 116.1966208,-0.98308 174.294928,-1.47461 0.621483,-1.80236 -1.901685,-3.03636 -3.294903,-2.14956 -56.3352926,0.53162 -112.670585,1.06325 -169.005875,1.59487 0.63998,-40.55404 1.27995,-81.108073 1.91992,-121.662109 -0.34087,0.02767 -0.68217,-0.01981 -1.02343,-0.0059 z"
       id="path843-5"
       inkscape:connector-curvature="0" />
    <text
       id="text54"
       y="161.74907"
       x="61.261333"
       style="font-style:normal;font-variant:normal;font-weight:normal;font-stretch:normal;font-size:14.1111px;line-height:1;font-family:'Daniel Black';-inkscape-font-specification:'Daniel Black, ';text-align:center;letter-spacing:0px;word-spacing:0px;text-anchor:middle;stroke-width:0.264583"
       xml:space="preserve"><tspan
         style="font-style:normal;font-variant:normal;font-weight:normal;font-stretch:normal;font-family:'Daniel Black';-inkscape-font-specification:'Daniel Black, ';stroke-width:0.264583"
         y="161.74907"
         x="61.261333"
         id="tspan52"
         sodipodi:role="line">z</tspan></text>
  </g>
</svg>
