<?xml version="1.0" encoding="UTF-8" standalone="no"?>
<svg
   xmlns:dc="http://purl.org/dc/elements/1.1/"
   xmlns:cc="http://creativecommons.org/ns#"
   xmlns:rdf="http://www.w3.org/1999/02/22-rdf-syntax-ns#"
   xmlns:svg="http://www.w3.org/2000/svg"
   xmlns="http://www.w3.org/2000/svg"
   xmlns:sodipodi="http://sodipodi.sourceforge.net/DTD/sodipodi-0.dtd"
   xmlns:inkscape="http://www.inkscape.org/namespaces/inkscape"
   sodipodi:docname="optimal_transport_2.svg"
   inkscape:version="1.0alpha2 (863a58d, 2019-08-17)"
   id="svg8"
   version="1.1"
   viewBox="0 0 262.43362 250.88126"
   height="250.88126mm"
   width="262.43362mm">
  <defs
     id="defs2" />
  <sodipodi:namedview
     inkscape:window-maximized="0"
     inkscape:window-y="26"
     inkscape:window-x="0"
     inkscape:window-height="1054"
     inkscape:window-width="1920"
     fit-margin-bottom="0"
     fit-margin-right="0"
     fit-margin-left="0"
     fit-margin-top="0"
     showgrid="false"
     inkscape:document-rotation="0"
     inkscape:current-layer="layer1"
     inkscape:document-units="mm"
     inkscape:cy="609.49978"
     inkscape:cx="489.42364"
     inkscape:zoom="0.49497475"
     inkscape:pageshadow="2"
     inkscape:pageopacity="0.0"
     borderopacity="1.0"
     bordercolor="#666666"
     pagecolor="#ffffff"
     id="base" />
  <metadata
     id="metadata5">
    <rdf:RDF>
      <cc:Work
         rdf:about="">
        <dc:format>image/svg+xml</dc:format>
        <dc:type
           rdf:resource="http://purl.org/dc/dcmitype/StillImage" />
        <dc:title></dc:title>
      </cc:Work>
    </rdf:RDF>
  </metadata>
  <g
     transform="translate(-12.653527,-60.302722)"
     id="layer1"
     inkscape:groupmode="layer"
     inkscape:label="Calque 1">
    <path
       sodipodi:nodetypes="cccccc"
       inkscape:connector-curvature="0"
       id="path341"
       d="m 22.486328,154.33398 157.515622,-1.74414 c -0.1879,-1.75029 -2.40155,-1.9083 -3.70286,-1.37236 -11.82341,0.87667 -23.68699,1.06038 -35.53871,1.02853 -38.97309,0.27415 -77.947032,0.39226 -116.920536,0.58993 z"
       style="color:#000000;font-style:normal;font-variant:normal;font-weight:normal;font-stretch:normal;font-size:medium;line-height:normal;font-family:sans-serif;font-variant-ligatures:normal;font-variant-position:normal;font-variant-caps:normal;font-variant-numeric:normal;font-variant-alternates:normal;font-variant-east-asian:normal;font-feature-settings:normal;font-variation-settings:normal;text-indent:0;text-align:start;text-decoration:none;text-decoration-line:none;text-decoration-style:solid;text-decoration-color:#000000;letter-spacing:normal;word-spacing:normal;text-transform:none;writing-mode:lr-tb;direction:ltr;text-orientation:mixed;dominant-baseline:auto;baseline-shift:baseline;text-anchor:start;white-space:normal;shape-padding:0;shape-margin:0;inline-size:0;clip-rule:nonzero;display:inline;overflow:visible;visibility:visible;opacity:1;isolation:auto;mix-blend-mode:normal;color-interpolation:sRGB;color-interpolation-filters:linearRGB;solid-color:#000000;solid-opacity:1;vector-effect:none;fill:#000000;fill-opacity:1;fill-rule:nonzero;stroke:none;stroke-width:1.5;stroke-linecap:butt;stroke-linejoin:miter;stroke-miterlimit:4;stroke-dasharray:none;stroke-dashoffset:0;stroke-opacity:1;color-rendering:auto;image-rendering:auto;shape-rendering:auto;text-rendering:auto;enable-background:accumulate;stop-color:#000000;stop-opacity:1" />
    <path
       inkscape:connector-curvature="0"
       id="path345"
       d="m 45.583984,60.308594 c -3.8551,1.428743 -5.785881,5.578696 -6.326526,9.410765 -3.230948,11.229408 -4.916896,22.861308 -5.409926,34.525481 -0.902155,12.76818 -0.648896,25.88005 -4.843626,38.13993 -1.148309,3.28113 -2.53943,6.54887 -4.537109,9.39257 -0.714442,0.32632 -0.952603,2.04882 0.141709,1.79797 2.319742,-1.28956 2.588329,-4.20622 3.86603,-6.29287 5.167838,-12.0703 6.08168,-25.36525 6.638477,-38.32491 0.446415,-10.963268 1.113202,-22.029205 4.102878,-32.643662 1.295631,-4.319331 2.2597,-8.828899 4.49114,-12.786524 1.259308,-1.686783 3.87378,-2.015059 5.482449,-0.629729 2.56641,1.799286 3.596018,4.9243 5.491025,7.306115 6.120514,9.125074 9.568055,19.855953 16.533822,28.43912 5.740458,6.79876 14.152083,11.7253 23.168168,12.07187 6.889925,0.11786 13.140755,-3.2545 19.003865,-6.48662 3.21839,-1.85065 6.94813,-3.60335 10.74645,-2.68708 4.09912,1.12203 6.57401,4.95654 8.44871,8.49564 5.09152,9.96045 10.09188,20.24328 17.92917,28.39189 4.43341,4.45476 8.86539,9.18094 14.66448,11.86206 4.3719,2.02652 9.32761,2.75889 14.10608,2.18009 0.59875,-1.35629 -1.46545,-2.26108 -2.41965,-1.45615 -7.59761,0.60213 -14.90391,-3.16774 -20.20522,-8.38475 -9.96242,-8.60262 -16.66905,-20.17932 -22.60003,-31.7574 -1.92926,-3.77442 -3.8942,-8.08178 -7.94112,-9.99154 -3.59065,-1.626784 -7.81544,-0.974837 -11.18901,0.87504 -5.82454,2.68105 -11.24515,6.82892 -17.841871,7.33396 -8.261282,0.78592 -16.339227,-3.09278 -22.223448,-8.68541 C 68.2526,94.189853 65.022029,85.515634 60.925081,77.637907 57.559093,71.255935 53.329479,65.116729 47.562155,60.69011 46.942399,60.416079 46.262783,60.270964 45.583984,60.308594 Z"
       style="color:#000000;font-style:normal;font-variant:normal;font-weight:normal;font-stretch:normal;font-size:medium;line-height:normal;font-family:sans-serif;font-variant-ligatures:normal;font-variant-position:normal;font-variant-caps:normal;font-variant-numeric:normal;font-variant-alternates:normal;font-variant-east-asian:normal;font-feature-settings:normal;font-variation-settings:normal;text-indent:0;text-align:start;text-decoration:none;text-decoration-line:none;text-decoration-style:solid;text-decoration-color:#000000;letter-spacing:normal;word-spacing:normal;text-transform:none;writing-mode:lr-tb;direction:ltr;text-orientation:mixed;dominant-baseline:auto;baseline-shift:baseline;text-anchor:start;white-space:normal;shape-padding:0;shape-margin:0;inline-size:0;clip-rule:nonzero;display:inline;overflow:visible;visibility:visible;opacity:1;isolation:auto;mix-blend-mode:normal;color-interpolation:sRGB;color-interpolation-filters:linearRGB;solid-color:#000000;solid-opacity:1;vector-effect:none;fill:#ff7f2a;fill-opacity:1;fill-rule:nonzero;stroke:none;stroke-width:1.5;stroke-linecap:butt;stroke-linejoin:miter;stroke-miterlimit:4;stroke-dasharray:none;stroke-dashoffset:0;stroke-opacity:1;color-rendering:auto;image-rendering:auto;shape-rendering:auto;text-rendering:auto;enable-background:accumulate;stop-color:#000000;stop-opacity:1" />
    <text
       id="text357"
       y="125.70168"
       x="165.52711"
       style="font-style:normal;font-variant:normal;font-weight:normal;font-stretch:normal;font-size:10.5833px;line-height:1;font-family:'Daniel Black';-inkscape-font-specification:'Daniel Black, ';text-align:center;letter-spacing:0px;word-spacing:0px;text-anchor:middle;stroke-width:0.264583"
       xml:space="preserve"><tspan
         style="font-style:normal;font-variant:normal;font-weight:normal;font-stretch:normal;font-family:'Daniel Black';-inkscape-font-specification:'Daniel Black, ';stroke-width:0.264583"
         y="125.70168"
         x="165.52711"
         id="tspan355"
         sodipodi:role="line">P(x)</tspan></text>
    <text
       id="text369"
       y="311.08063"
       x="185.57234"
       style="font-style:normal;font-variant:normal;font-weight:normal;font-stretch:normal;font-size:10.5833px;line-height:1;font-family:'Daniel Black';-inkscape-font-specification:'Daniel Black, ';text-align:center;letter-spacing:0px;word-spacing:0px;text-anchor:middle;stroke-width:0.264583"
       xml:space="preserve"><tspan
         style="font-style:normal;font-variant:normal;font-weight:normal;font-stretch:normal;font-family:'Daniel Black';-inkscape-font-specification:'Daniel Black, ';stroke-width:0.264583"
         y="311.08063"
         x="185.57234"
         id="tspan367"
         sodipodi:role="line">x</tspan></text>
    <path
       inkscape:connector-curvature="0"
       id="path349"
       d="m 180.05371,151.9171 c -0.29629,3.09733 0.0136,6.21397 -0.0777,9.31991 l 0.96636,144.48478 c 1.97275,-0.25178 2.30301,-2.79794 1.59154,-4.29296 -0.0917,-47.08814 -0.88822,-94.1717 -1.04359,-141.2593 0.004,-2.1688 0.0169,-4.33756 0.0263,-6.50634 z"
       style="color:#000000;font-style:normal;font-variant:normal;font-weight:normal;font-stretch:normal;font-size:medium;line-height:normal;font-family:sans-serif;font-variant-ligatures:normal;font-variant-position:normal;font-variant-caps:normal;font-variant-numeric:normal;font-variant-alternates:normal;font-variant-east-asian:normal;font-feature-settings:normal;font-variation-settings:normal;text-indent:0;text-align:start;text-decoration:none;text-decoration-line:none;text-decoration-style:solid;text-decoration-color:#000000;letter-spacing:normal;word-spacing:normal;text-transform:none;writing-mode:lr-tb;direction:ltr;text-orientation:mixed;dominant-baseline:auto;baseline-shift:baseline;text-anchor:start;white-space:normal;shape-padding:0;shape-margin:0;inline-size:0;clip-rule:nonzero;display:inline;overflow:visible;visibility:visible;opacity:1;isolation:auto;mix-blend-mode:normal;color-interpolation:sRGB;color-interpolation-filters:linearRGB;solid-color:#000000;solid-opacity:1;vector-effect:none;fill:#000000;fill-opacity:1;fill-rule:nonzero;stroke:none;stroke-width:1.5;stroke-linecap:butt;stroke-linejoin:miter;stroke-miterlimit:4;stroke-dasharray:none;stroke-dashoffset:0;stroke-opacity:1;color-rendering:auto;image-rendering:auto;shape-rendering:auto;text-rendering:auto;enable-background:accumulate;stop-color:#000000;stop-opacity:1"
       sodipodi:nodetypes="ccccccc" />
    <path
       inkscape:connector-curvature="0"
       id="path353"
       d="m 275.083,222.85851 c -0.78906,-6.93806 -6.18539,-12.89003 -12.79713,-14.88847 -12.1756,-4.76379 -24.73617,-8.75552 -36.15924,-15.23108 -9.78359,-5.37198 -19.18902,-11.42142 -28.28804,-17.87898 -6.06482,-4.40233 -11.89354,-9.65142 -14.9772,-16.63481 -0.72696,-1.43323 -1.08842,-3.0931 -1.96003,-4.4194 -0.86429,-0.43915 -1.31472,0.79576 -0.89941,1.42993 1.49827,4.31708 3.84295,8.34589 6.86011,11.78452 5.33467,6.11756 12.20285,10.5942 18.89849,15.06624 11.49114,7.4602 23.31995,14.52525 36.0185,19.74934 7.64042,3.21804 15.69213,5.48135 23.02764,9.39884 3.88234,2.059 7.7507,5.28293 8.57319,9.82894 0.75239,4.17573 -1.45882,8.41711 -4.84894,10.7993 -4.26312,3.41223 -9.25035,5.73321 -14.03411,8.30238 -14.72121,7.27989 -30.75416,12.23546 -44.05481,22.13916 -9.41498,7.01529 -18.27128,15.17927 -24.33111,25.34123 -2.96423,5.18181 -5.07132,11.10354 -4.86104,17.12513 0.68247,1.01083 2.13479,-0.36642 1.71653,-1.29627 -0.26041,-2.35054 0.43299,-4.68941 0.94656,-6.96386 2.55902,-9.3604 8.92892,-17.09052 15.87475,-23.62048 11.574,-10.93621 25.71902,-18.77639 40.44298,-24.62555 10.75373,-4.61642 21.8701,-9.16908 30.6975,-17.07434 2.26127,-2.18227 4.26242,-5.05277 4.15481,-8.33177 z"
       style="color:#000000;font-style:normal;font-variant:normal;font-weight:normal;font-stretch:normal;font-size:medium;line-height:normal;font-family:sans-serif;font-variant-ligatures:normal;font-variant-position:normal;font-variant-caps:normal;font-variant-numeric:normal;font-variant-alternates:normal;font-variant-east-asian:normal;font-feature-settings:normal;font-variation-settings:normal;text-indent:0;text-align:start;text-decoration:none;text-decoration-line:none;text-decoration-style:solid;text-decoration-color:#000000;letter-spacing:normal;word-spacing:normal;text-transform:none;writing-mode:lr-tb;direction:ltr;text-orientation:mixed;dominant-baseline:auto;baseline-shift:baseline;text-anchor:start;white-space:normal;shape-padding:0;shape-margin:0;inline-size:0;clip-rule:nonzero;display:inline;overflow:visible;visibility:visible;opacity:1;isolation:auto;mix-blend-mode:normal;color-interpolation:sRGB;color-interpolation-filters:linearRGB;solid-color:#000000;solid-opacity:1;vector-effect:none;fill:#2a7fff;fill-opacity:1;fill-rule:nonzero;stroke:none;stroke-width:1.5;stroke-linecap:butt;stroke-linejoin:miter;stroke-miterlimit:4;stroke-dasharray:none;stroke-dashoffset:0;stroke-opacity:1;color-rendering:auto;image-rendering:auto;shape-rendering:auto;text-rendering:auto;enable-background:accumulate;stop-color:#000000;stop-opacity:1" />
    <text
       xml:space="preserve"
       style="font-style:normal;font-variant:normal;font-weight:normal;font-stretch:normal;font-size:10.5833px;line-height:1;font-family:'Daniel Black';-inkscape-font-specification:'Daniel Black, ';text-align:center;letter-spacing:0px;word-spacing:0px;text-anchor:middle;opacity:1;stroke-width:0.264583;stop-opacity:1"
       x="231.84865"
       y="284.30267"
       id="text361"><tspan
         sodipodi:role="line"
         id="tspan359"
         x="231.84865"
         y="284.30267"
         style="font-style:normal;font-variant:normal;font-weight:normal;font-stretch:normal;font-family:'Daniel Black';-inkscape-font-specification:'Daniel Black, ';stroke-width:0.264583">q(y|z,w<tspan
   id="tspan365"
   style="font-size:65%;baseline-shift:super">g</tspan>,a<tspan
   id="tspan363"
   style="font-size:65%;baseline-shift:super">g</tspan>)</tspan></text>
    <text
       id="text373"
       y="157.03169"
       x="14.994462"
       style="font-style:normal;font-variant:normal;font-weight:normal;font-stretch:normal;font-size:10.5833px;line-height:1;font-family:'Daniel Black';-inkscape-font-specification:'Daniel Black, ';text-align:center;letter-spacing:0px;word-spacing:0px;text-anchor:middle;opacity:1;stroke-width:0.264583;stop-opacity:1"
       xml:space="preserve"><tspan
         style="font-style:normal;font-variant:normal;font-weight:normal;font-stretch:normal;font-family:'Daniel Black';-inkscape-font-specification:'Daniel Black, ';stroke-width:0.264583"
         y="157.03169"
         x="14.994462"
         id="tspan371"
         sodipodi:role="line">y</tspan></text>
    <path
       inkscape:connector-curvature="0"
       id="path377"
       d="M 174.40398,196.84841 Z"
       style="opacity:1;fill:none;stroke:#000000;stroke-width:0.264583px;stroke-linecap:butt;stroke-linejoin:miter;stroke-opacity:1;stop-opacity:1" />
    <path
       inkscape:connector-curvature="0"
       id="path404"
       d="m 23.898438,154.10742 c -1.661674,1.98706 -0.42468,4.66639 -0.819849,6.96482 0.130705,49.46094 0.26141,98.92189 0.392114,148.38284 52.597656,-1.3112 105.195317,-2.6224 157.792967,-3.9336 0.0544,-1.6824 -2.16844,-2.09278 -3.36714,-1.43335 -50.97463,1.2701 -101.94925,2.5402 -152.923874,3.81031 -0.127604,-51.23959 -0.255208,-102.47917 -0.382812,-153.71875 -0.233893,0.0194 -0.457212,-0.0941 -0.691406,-0.0723 z"
       style="color:#000000;font-style:normal;font-variant:normal;font-weight:normal;font-stretch:normal;font-size:medium;line-height:normal;font-family:sans-serif;font-variant-ligatures:normal;font-variant-position:normal;font-variant-caps:normal;font-variant-numeric:normal;font-variant-alternates:normal;font-variant-east-asian:normal;font-feature-settings:normal;font-variation-settings:normal;text-indent:0;text-align:start;text-decoration:none;text-decoration-line:none;text-decoration-style:solid;text-decoration-color:#000000;letter-spacing:normal;word-spacing:normal;text-transform:none;writing-mode:lr-tb;direction:ltr;text-orientation:mixed;dominant-baseline:auto;baseline-shift:baseline;text-anchor:start;white-space:normal;shape-padding:0;shape-margin:0;inline-size:0;clip-rule:nonzero;display:inline;overflow:visible;visibility:visible;opacity:1;isolation:auto;mix-blend-mode:normal;color-interpolation:sRGB;color-interpolation-filters:linearRGB;solid-color:#000000;solid-opacity:1;vector-effect:none;fill:#000000;fill-opacity:1;fill-rule:nonzero;stroke:none;stroke-width:1.5;stroke-linecap:butt;stroke-linejoin:miter;stroke-miterlimit:4;stroke-dasharray:none;stroke-dashoffset:0;stroke-opacity:1;color-rendering:auto;image-rendering:auto;shape-rendering:auto;text-rendering:auto;enable-background:accumulate;stop-color:#000000;stop-opacity:1" />
    <path
       inkscape:connector-curvature="0"
       id="path1463"
       d="m 67.533203,180.70898 c -6.476476,0.3871 -12.069328,4.3916 -16.41832,8.93564 -7.369773,7.7662 -13.959954,16.69168 -17.021133,27.08194 -0.07545,1.80343 2.593718,2.5811 3.600924,1.13542 3.35161,-2.41603 5.381365,-6.14531 8.369399,-8.94165 5.036745,-5.38675 11.16369,-10.33881 18.575796,-11.78562 5.624114,-0.90228 11.401753,1.80305 14.86628,6.21326 4.488461,5.23295 6.13259,12.07993 8.765862,18.28949 1.034063,2.23456 2.257441,4.60611 4.356895,5.9934 1.619099,0.43193 3.046512,-1.42722 2.515225,-2.92964 -0.134408,-5.17013 -1.640776,-10.174 -2.999211,-15.12512 -2.907175,-9.36635 -7.532741,-18.55365 -15.039451,-25.06829 -2.698903,-2.18589 -6.023398,-3.86864 -9.572266,-3.79883 z m 0.470703,1.4043 c 5.395062,0.26939 9.815942,4.06454 12.941114,8.1823 7.651761,9.94203 11.870385,22.32338 12.61748,34.79622 -0.01167,0.72952 -0.932272,0.94482 -1.238281,0.25781 -1.666052,-1.76522 -2.406648,-4.15162 -3.500879,-6.27025 -2.671623,-6.35777 -4.711571,-13.3477 -9.84025,-18.25411 -4.703532,-4.7667 -12.346015,-6.7619 -18.584106,-3.97525 -8.147076,2.99279 -14.316439,9.46159 -19.753997,15.97807 -1.309281,1.49892 -2.695053,2.95041 -4.305143,4.13091 -1.091681,-0.76809 -0.01196,-2.0846 0.184773,-3.03479 2.433004,-6.12234 6.244203,-11.56869 10.087911,-16.87247 4.484471,-5.78365 9.843519,-11.27125 16.705586,-14.13159 1.503039,-0.52198 3.090686,-0.83307 4.685792,-0.80685 z"
       style="color:#000000;font-style:normal;font-variant:normal;font-weight:normal;font-stretch:normal;font-size:medium;line-height:normal;font-family:sans-serif;font-variant-ligatures:normal;font-variant-position:normal;font-variant-caps:normal;font-variant-numeric:normal;font-variant-alternates:normal;font-variant-east-asian:normal;font-feature-settings:normal;font-variation-settings:normal;text-indent:0;text-align:start;text-decoration:none;text-decoration-line:none;text-decoration-style:solid;text-decoration-color:#000000;letter-spacing:normal;word-spacing:normal;text-transform:none;writing-mode:lr-tb;direction:ltr;text-orientation:mixed;dominant-baseline:auto;baseline-shift:baseline;text-anchor:start;white-space:normal;shape-padding:0;shape-margin:0;inline-size:0;clip-rule:nonzero;display:inline;overflow:visible;visibility:visible;opacity:1;isolation:auto;mix-blend-mode:normal;color-interpolation:sRGB;color-interpolation-filters:linearRGB;solid-color:#000000;solid-opacity:1;vector-effect:none;fill:#892ca0;fill-opacity:0.937255;fill-rule:nonzero;stroke:none;stroke-width:1.5;stroke-linecap:butt;stroke-linejoin:miter;stroke-miterlimit:4;stroke-dasharray:none;stroke-dashoffset:0;stroke-opacity:1;color-rendering:auto;image-rendering:auto;shape-rendering:auto;text-rendering:auto;enable-background:accumulate;stop-color:#000000;stop-opacity:1" />
    <path
       inkscape:connector-curvature="0"
       id="path1439"
       d="m 124.91602,217.75781 c -3.55632,0.13538 -7.53734,-0.16014 -10.50196,2.18555 -1.1154,1.61568 0.66305,3.541 2.29617,3.77415 5.86574,1.99827 12.54106,1.89628 18.22336,-0.63743 1.20976,-0.72679 1.61795,-2.76788 0.19336,-3.50586 -2.32574,-1.68756 -5.35907,-1.4987 -8.08199,-1.80287 -0.70946,-0.0221 -1.41925,-0.0216 -2.12894,-0.0135 z m 1.4707,1.51563 c 2.78725,0.0368 5.75164,0.11323 8.20898,1.59765 -0.24155,1.72896 -2.33097,1.81122 -3.65399,2.23065 -4.94243,1.12654 -10.39498,1.07221 -14.96515,-1.33612 -0.52564,-1.17356 1.08578,-1.75659 1.99414,-1.77343 2.74192,-0.71473 5.59937,-0.77879 8.41602,-0.71875 z"
       style="color:#000000;font-style:normal;font-variant:normal;font-weight:normal;font-stretch:normal;font-size:medium;line-height:normal;font-family:sans-serif;font-variant-ligatures:normal;font-variant-position:normal;font-variant-caps:normal;font-variant-numeric:normal;font-variant-alternates:normal;font-variant-east-asian:normal;font-feature-settings:normal;font-variation-settings:normal;text-indent:0;text-align:start;text-decoration:none;text-decoration-line:none;text-decoration-style:solid;text-decoration-color:#000000;letter-spacing:normal;word-spacing:normal;text-transform:none;writing-mode:lr-tb;direction:ltr;text-orientation:mixed;dominant-baseline:auto;baseline-shift:baseline;text-anchor:start;white-space:normal;shape-padding:0;shape-margin:0;inline-size:0;clip-rule:nonzero;display:inline;overflow:visible;visibility:visible;opacity:1;isolation:auto;mix-blend-mode:normal;color-interpolation:sRGB;color-interpolation-filters:linearRGB;solid-color:#000000;solid-opacity:1;vector-effect:none;fill:#892ca0;fill-opacity:0.937255;fill-rule:nonzero;stroke:none;stroke-width:1.5;stroke-linecap:butt;stroke-linejoin:miter;stroke-miterlimit:4;stroke-dasharray:none;stroke-dashoffset:0;stroke-opacity:1;color-rendering:auto;image-rendering:auto;shape-rendering:auto;text-rendering:auto;enable-background:accumulate;stop-color:#000000;stop-opacity:1" />
    <path
       inkscape:connector-curvature="0"
       id="path1443"
       d="m 132.16992,228.51172 c -9.24631,0.24652 -18.73341,0.61229 -27.47656,3.93164 -1.50302,0.61927 -2.81604,2.5192 -1.70513,4.04702 1.23783,1.75691 3.54256,2.17703 5.47052,2.76926 4.75501,1.02409 9.66005,0.812 14.49227,0.79152 7.93864,-0.27188 16.01565,-0.313 23.72086,-2.46718 1.64006,-0.56591 3.54544,-2.17435 2.86999,-4.09977 -1.22523,-2.7261 -4.46514,-3.37092 -7.07928,-4.02954 -3.37096,-0.76071 -6.84446,-0.98103 -10.29267,-0.94295 z m 1.57617,1.18164 c 4.90931,0.11755 10.16515,0.56944 14.26172,3.56055 0.94583,1.62227 -0.94887,3.23801 -2.49428,3.30077 -7.47218,2.26501 -15.37079,1.86341 -23.07775,2.30963 -5.83174,0.0914 -12.01951,0.24896 -17.34789,-2.4815 -0.96263,-0.71222 -0.68602,-2.32991 0.47997,-2.65796 2.59886,-1.45854 5.62494,-1.82284 8.49321,-2.45934 6.49091,-1.14825 13.09623,-1.64041 19.68502,-1.57215 z"
       style="color:#000000;font-style:normal;font-variant:normal;font-weight:normal;font-stretch:normal;font-size:medium;line-height:normal;font-family:sans-serif;font-variant-ligatures:normal;font-variant-position:normal;font-variant-caps:normal;font-variant-numeric:normal;font-variant-alternates:normal;font-variant-east-asian:normal;font-feature-settings:normal;font-variation-settings:normal;text-indent:0;text-align:start;text-decoration:none;text-decoration-line:none;text-decoration-style:solid;text-decoration-color:#000000;letter-spacing:normal;word-spacing:normal;text-transform:none;writing-mode:lr-tb;direction:ltr;text-orientation:mixed;dominant-baseline:auto;baseline-shift:baseline;text-anchor:start;white-space:normal;shape-padding:0;shape-margin:0;inline-size:0;clip-rule:nonzero;display:inline;overflow:visible;visibility:visible;opacity:1;isolation:auto;mix-blend-mode:normal;color-interpolation:sRGB;color-interpolation-filters:linearRGB;solid-color:#000000;solid-opacity:1;vector-effect:none;fill:#892ca0;fill-opacity:0.937255;fill-rule:nonzero;stroke:none;stroke-width:1.5;stroke-linecap:butt;stroke-linejoin:miter;stroke-miterlimit:4;stroke-dasharray:none;stroke-dashoffset:0;stroke-opacity:1;color-rendering:auto;image-rendering:auto;shape-rendering:auto;text-rendering:auto;enable-background:accumulate;stop-color:#000000;stop-opacity:1" />
    <path
       inkscape:connector-curvature="0"
       id="path1447"
       d="m 129.28906,244.41016 c -4.56393,0.24185 -9.60008,0.82248 -13.05499,4.12687 -0.88608,1.3921 0.66482,3.07326 2.13373,2.9342 5.83584,1.12679 11.81787,0.45248 17.67718,-0.0913 1.734,-0.29349 3.81394,-0.76111 4.72237,-2.42208 0.22434,-2.05694 -1.9637,-3.19584 -3.66226,-3.60886 -2.49868,-0.88456 -5.19021,-1.00316 -7.81603,-0.93878 z m 1.46485,1.33203 c 2.99354,0.0418 6.19692,0.49051 8.59179,2.4414 -0.7187,1.72404 -2.89795,1.27515 -4.36384,1.72297 -5.60986,0.70375 -11.39503,1.0658 -16.93694,-0.30304 -0.71519,-1.02632 0.84883,-1.66011 1.61719,-1.9043 3.47337,-1.54208 7.31761,-2.03973 11.0918,-1.95703 z"
       style="color:#000000;font-style:normal;font-variant:normal;font-weight:normal;font-stretch:normal;font-size:medium;line-height:normal;font-family:sans-serif;font-variant-ligatures:normal;font-variant-position:normal;font-variant-caps:normal;font-variant-numeric:normal;font-variant-alternates:normal;font-variant-east-asian:normal;font-feature-settings:normal;font-variation-settings:normal;text-indent:0;text-align:start;text-decoration:none;text-decoration-line:none;text-decoration-style:solid;text-decoration-color:#000000;letter-spacing:normal;word-spacing:normal;text-transform:none;writing-mode:lr-tb;direction:ltr;text-orientation:mixed;dominant-baseline:auto;baseline-shift:baseline;text-anchor:start;white-space:normal;shape-padding:0;shape-margin:0;inline-size:0;clip-rule:nonzero;display:inline;overflow:visible;visibility:visible;opacity:1;isolation:auto;mix-blend-mode:normal;color-interpolation:sRGB;color-interpolation-filters:linearRGB;solid-color:#000000;solid-opacity:1;vector-effect:none;fill:#892ca0;fill-opacity:0.937255;fill-rule:nonzero;stroke:none;stroke-width:1.5;stroke-linecap:butt;stroke-linejoin:miter;stroke-miterlimit:4;stroke-dasharray:none;stroke-dashoffset:0;stroke-opacity:1;color-rendering:auto;image-rendering:auto;shape-rendering:auto;text-rendering:auto;enable-background:accumulate;stop-color:#000000;stop-opacity:1" />
    <path
       inkscape:connector-curvature="0"
       transform="rotate(8.8615131)"
       id="path1451"
       d="m 99.447266,187.09766 c -4.902288,0.49874 -8.644039,4.45364 -10.715588,8.67107 -9.664498,17.63015 -9.836583,40.33534 0.355185,57.78168 2.161153,3.47084 5.462111,6.9025 9.797903,7.11561 3.588034,0.0547 6.605314,-2.54587 8.252484,-5.551 3.18045,-5.21689 3.75121,-11.4562 4.49799,-17.38378 0.91308,-10.65813 1.59613,-21.39235 0.8023,-32.08044 -0.43679,-5.80585 -2.12811,-11.94671 -6.62699,-15.94195 -1.73367,-1.56314 -3.97176,-2.73472 -6.363284,-2.61119 z m 0.541015,1.46484 c 4.533249,0.43424 7.848829,4.41631 9.186339,8.51861 3.07641,8.55292 2.27315,17.79439 1.86995,26.69396 -0.52483,9.11749 -0.36266,18.53332 -3.68026,27.19091 -1.14196,2.95807 -2.67563,6.20284 -5.80478,7.47366 -2.480232,1.17911 -5.459761,0.43925 -7.464667,-1.32383 -4.039239,-3.18579 -5.935896,-8.18087 -7.752925,-12.82175 -5.618461,-15.57206 -4.165245,-33.55309 3.910717,-48.00393 1.955457,-3.27043 4.49204,-6.83439 8.466095,-7.64951 0.41927,-0.0704 0.844778,-0.0964 1.269531,-0.0781 z"
       style="color:#000000;font-style:normal;font-variant:normal;font-weight:normal;font-stretch:normal;font-size:medium;line-height:normal;font-family:sans-serif;font-variant-ligatures:normal;font-variant-position:normal;font-variant-caps:normal;font-variant-numeric:normal;font-variant-alternates:normal;font-variant-east-asian:normal;font-feature-settings:normal;font-variation-settings:normal;text-indent:0;text-align:start;text-decoration:none;text-decoration-line:none;text-decoration-style:solid;text-decoration-color:#000000;letter-spacing:normal;word-spacing:normal;text-transform:none;writing-mode:lr-tb;direction:ltr;text-orientation:mixed;dominant-baseline:auto;baseline-shift:baseline;text-anchor:start;white-space:normal;shape-padding:0;shape-margin:0;inline-size:0;clip-rule:nonzero;display:inline;overflow:visible;visibility:visible;opacity:1;isolation:auto;mix-blend-mode:normal;color-interpolation:sRGB;color-interpolation-filters:linearRGB;solid-color:#000000;solid-opacity:1;vector-effect:none;fill:#892ca0;fill-opacity:0.937255;fill-rule:nonzero;stroke:none;stroke-width:1.5;stroke-linecap:butt;stroke-linejoin:miter;stroke-miterlimit:4;stroke-dasharray:none;stroke-dashoffset:0;stroke-opacity:1;color-rendering:auto;image-rendering:auto;shape-rendering:auto;text-rendering:auto;enable-background:accumulate;stop-color:#000000;stop-opacity:1" />
    <path
       inkscape:connector-curvature="0"
       id="path1467"
       d="m 30.433594,243.66016 c -1.901053,0.65627 -1.784513,3.07643 -1.415726,4.68105 1.761843,10.42478 6.042311,20.22808 10.905727,29.5447 3.038154,5.34862 7.018569,10.58564 12.71715,13.25661 5.076916,2.00765 10.901201,0.46543 15.180571,-2.65707 6.826772,-4.60144 11.61653,-11.55096 15.628934,-18.60518 2.595465,-4.81379 4.841906,-9.91105 5.844672,-15.30996 -0.04003,-1.44231 -1.848721,-2.566 -3.060547,-1.58789 -2.844965,1.4481 -4.088177,4.58821 -5.894981,7.03294 -3.790646,5.90705 -8.328291,11.85701 -14.946652,14.73456 -4.077696,1.76791 -9.015828,1.47666 -12.72766,-1.03394 -5.650016,-3.50982 -9.004493,-9.52695 -11.963349,-15.27956 -2.547539,-4.98668 -4.849178,-10.30206 -8.898896,-14.28614 -0.387198,-0.30088 -0.862377,-0.55593 -1.369243,-0.49012 z m 0.675781,1.88476 c 5.026645,5.15085 7.014434,12.2851 10.844047,18.23396 3.195487,5.40834 7.463772,10.7181 13.548531,12.93206 5.41372,1.75147 11.419776,-0.1232 15.669922,-3.68946 5.981136,-4.48504 9.557422,-11.20551 13.902297,-17.11362 0.62648,-0.69012 1.380662,-1.42737 2.369187,-1.47427 0.351049,1.94429 -0.751155,3.74931 -1.232289,5.57573 -2.979637,7.93327 -7.059554,15.58626 -12.810318,21.86751 -3.488911,3.73225 -7.684758,7.08999 -12.657197,8.53585 -4.329733,1.06149 -9.149647,-0.29343 -12.216211,-3.55135 -5.600882,-5.12562 -8.844637,-12.16846 -11.883511,-18.98537 -2.777075,-6.6416 -5.218699,-13.51717 -6.21972,-20.67085 -0.0017,-0.62402 0.0143,-1.63954 0.346582,-1.98243 0.112893,0.10742 0.225787,0.21483 0.33868,0.32224 z"
       style="color:#000000;font-style:normal;font-variant:normal;font-weight:normal;font-stretch:normal;font-size:medium;line-height:normal;font-family:sans-serif;font-variant-ligatures:normal;font-variant-position:normal;font-variant-caps:normal;font-variant-numeric:normal;font-variant-alternates:normal;font-variant-east-asian:normal;font-feature-settings:normal;font-variation-settings:normal;text-indent:0;text-align:start;text-decoration:none;text-decoration-line:none;text-decoration-style:solid;text-decoration-color:#000000;letter-spacing:normal;word-spacing:normal;text-transform:none;writing-mode:lr-tb;direction:ltr;text-orientation:mixed;dominant-baseline:auto;baseline-shift:baseline;text-anchor:start;white-space:normal;shape-padding:0;shape-margin:0;inline-size:0;clip-rule:nonzero;display:inline;overflow:visible;visibility:visible;opacity:1;isolation:auto;mix-blend-mode:normal;color-interpolation:sRGB;color-interpolation-filters:linearRGB;solid-color:#000000;solid-opacity:1;vector-effect:none;fill:#892ca0;fill-opacity:0.937255;fill-rule:nonzero;stroke:none;stroke-width:1.5;stroke-linecap:butt;stroke-linejoin:miter;stroke-miterlimit:4;stroke-dasharray:none;stroke-dashoffset:0;stroke-opacity:1;color-rendering:auto;image-rendering:auto;shape-rendering:auto;text-rendering:auto;enable-background:accumulate;stop-color:#000000;stop-opacity:1" />
    <path
       inkscape:connector-curvature="0"
       id="path1455"
       d="m 129.85742,231.41016 c -4.32909,0.21211 -9.04062,0.17497 -12.73242,2.78906 -0.98532,1.30359 0.73958,2.79041 2.05078,2.66992 5.90456,1.0042 12.08635,0.77073 17.82063,-0.99859 1.11275,-0.40571 1.93742,-2.09297 0.68558,-2.85198 -2.03606,-1.57716 -4.78142,-1.41015 -7.21322,-1.61183 -0.20379,10e-4 -0.40757,0.002 -0.61135,0.003 z m 1.37696,1.15039 c 1.98721,0.0588 4.04379,0.34699 5.77734,1.38476 -0.82562,1.7602 -3.07824,1.40973 -4.65048,1.86911 -4.50598,0.66683 -9.2026,0.84408 -13.61319,-0.47067 -0.37559,-1.16647 1.22967,-1.40884 2.02218,-1.62502 3.3792,-1.0469 6.95041,-1.21272 10.46415,-1.15818 z"
       style="color:#000000;font-style:normal;font-variant:normal;font-weight:normal;font-stretch:normal;font-size:medium;line-height:normal;font-family:sans-serif;font-variant-ligatures:normal;font-variant-position:normal;font-variant-caps:normal;font-variant-numeric:normal;font-variant-alternates:normal;font-variant-east-asian:normal;font-feature-settings:normal;font-variation-settings:normal;text-indent:0;text-align:start;text-decoration:none;text-decoration-line:none;text-decoration-style:solid;text-decoration-color:#000000;letter-spacing:normal;word-spacing:normal;text-transform:none;writing-mode:lr-tb;direction:ltr;text-orientation:mixed;dominant-baseline:auto;baseline-shift:baseline;text-anchor:start;white-space:normal;shape-padding:0;shape-margin:0;inline-size:0;clip-rule:nonzero;display:inline;overflow:visible;visibility:visible;opacity:1;isolation:auto;mix-blend-mode:normal;color-interpolation:sRGB;color-interpolation-filters:linearRGB;solid-color:#000000;solid-opacity:1;vector-effect:none;fill:#892ca0;fill-opacity:0.937255;fill-rule:nonzero;stroke:none;stroke-width:1.5;stroke-linecap:butt;stroke-linejoin:miter;stroke-miterlimit:4;stroke-dasharray:none;stroke-dashoffset:0;stroke-opacity:1;color-rendering:auto;image-rendering:auto;shape-rendering:auto;text-rendering:auto;enable-background:accumulate;stop-color:#000000;stop-opacity:1" />
    <path
       inkscape:connector-curvature="0"
       transform="rotate(8.8615128)"
       id="path1459"
       d="m 99.257812,196.85156 c -4.053444,0.67891 -6.749846,4.26536 -8.455078,7.73242 -6.512656,12.34245 -6.891411,28.0137 0.0272,40.27387 1.629616,2.91414 4.266353,5.92326 7.855616,6.01129 3.21045,-0.1493 5.36267,-3.1471 6.29391,-5.95062 3.01375,-8.29049 3.04496,-17.23967 3.34389,-25.94569 0.0796,-6.30414 0.11424,-13.01797 -3.06509,-18.67407 -1.28653,-1.97923 -3.50248,-3.77474 -6.000445,-3.4472 z m 0.566407,1.56641 c 3.384871,0.43205 5.380341,3.81127 5.979051,6.89067 2.06818,9.7981 1.12938,19.90437 -0.0435,29.75386 -0.62636,4.54074 -1.2478,9.58743 -4.74805,12.91992 -1.421468,1.53564 -3.830456,1.37335 -5.44396,0.24279 -2.776628,-1.89077 -4.096596,-5.16485 -5.440567,-8.11264 -4.615986,-11.2712 -3.637085,-24.62007 2.311447,-35.21332 1.322153,-2.15511 2.762214,-4.40337 4.895517,-5.83144 0.753011,-0.42901 1.617841,-0.69144 2.490062,-0.64984 z"
       style="color:#000000;font-style:normal;font-variant:normal;font-weight:normal;font-stretch:normal;font-size:medium;line-height:normal;font-family:sans-serif;font-variant-ligatures:normal;font-variant-position:normal;font-variant-caps:normal;font-variant-numeric:normal;font-variant-alternates:normal;font-variant-east-asian:normal;font-feature-settings:normal;font-variation-settings:normal;text-indent:0;text-align:start;text-decoration:none;text-decoration-line:none;text-decoration-style:solid;text-decoration-color:#000000;letter-spacing:normal;word-spacing:normal;text-transform:none;writing-mode:lr-tb;direction:ltr;text-orientation:mixed;dominant-baseline:auto;baseline-shift:baseline;text-anchor:start;white-space:normal;shape-padding:0;shape-margin:0;inline-size:0;clip-rule:nonzero;display:inline;overflow:visible;visibility:visible;opacity:1;isolation:auto;mix-blend-mode:normal;color-interpolation:sRGB;color-interpolation-filters:linearRGB;solid-color:#000000;solid-opacity:1;vector-effect:none;fill:#892ca0;fill-opacity:0.937255;fill-rule:nonzero;stroke:none;stroke-width:1.5;stroke-linecap:butt;stroke-linejoin:miter;stroke-miterlimit:4;stroke-dasharray:none;stroke-dashoffset:0;stroke-opacity:1;color-rendering:auto;image-rendering:auto;shape-rendering:auto;text-rendering:auto;enable-background:accumulate;stop-color:#000000;stop-opacity:1" />
    <path
       transform="matrix(0.26458333,0,0,0.26458333,22.486328,52.291016)"
       inkscape:connector-curvature="0"
       id="path1469"
       d="m 169.77666,491.56325 c -30.39315,3.07737 -52.86453,27.83346 -72.131777,49.26539 -18.593242,23.13031 -35.835091,48.45167 -45.594401,76.60908 1.035019,4.57483 6.494227,-3.6463 8.424514,-4.47466 28.916051,-27.93934 56.687744,-65.47281 99.452674,-70.46998 29.74635,-4.81116 57.64864,15.47817 70.33976,41.41626 13.67787,22.03594 19.05894,48.62377 34.54249,69.45193 4.92306,2.73128 1.86596,-7.92994 2.22155,-10.15282 -5.59332,-49.91743 -24.65372,-100.51209 -60.87382,-136.23921 -10.05374,-8.52739 -22.81811,-15.73263 -36.38099,-15.40599 z"
       style="fill:#882aa1;fill-opacity:0.286275;stroke:none;stroke-width:5.6693;stroke-opacity:0.937255" />
    <path
       transform="matrix(0.26458333,0,0,0.26458333,22.486328,52.291016)"
       inkscape:connector-curvature="0"
       id="path1471"
       d="m 172.28231,565.38725 c -24.07883,4.43471 -38.14398,27.94347 -50.06568,47.20884 -31.571154,55.90337 -40.929045,126.86329 -15.55872,186.87822 6.32659,15.70173 23.61481,34.32753 41.89765,24.7369 24.66659,-16.86688 32.64526,-48.50011 40.13778,-75.76144 10.22118,-49.27401 26.61028,-99.65032 17.82367,-150.42986 -4.32548,-15.4819 -16.25648,-33.22014 -34.2347,-32.63266 z m -2.72268,30.24538 c 18.83931,-1.34288 25.51676,21.14269 26.80456,35.98669 1.35386,38.50594 -8.25201,76.70935 -18.06437,113.73292 -6.99984,19.67095 -14.06104,45.7985 -36.76008,52.03469 -21.357,-0.74347 -30.77579,-24.80306 -34.77924,-42.61581 -13.17767,-52.44195 2.51231,-111.92185 40.74151,-150.24441 6.13454,-5.31735 13.81787,-9.00568 22.05762,-8.89408 z"
       style="fill:#882aa1;fill-opacity:0.286275;stroke:none;stroke-width:5.6693;stroke-opacity:0.937255" />
    <path
       transform="matrix(0.26458333,0,0,0.26458333,22.486328,52.291016)"
       inkscape:connector-curvature="0"
       id="path1473"
       d="m 31.283166,732.56355 c 3.39917,41.56965 22.050577,80.08604 40.469788,116.86794 12.964491,23.99217 33.642946,53.00767 64.436136,50.73057 34.98397,-5.40357 59.66393,-35.25313 78.31049,-63.00037 13.0933,-21.68385 25.6054,-45.02101 30.05204,-70.09117 -3.28587,-3.6907 -7.4376,5.27206 -9.77006,6.99214 -21.90429,28.63983 -42.15274,66.01725 -80.01119,74.87756 -28.04548,6.6909 -55.35784,-10.27441 -70.521468,-33.10504 -20.778765,-25.74766 -29.692905,-59.18507 -52.09369,-83.65439 z"
       style="fill:#882aa1;fill-opacity:0.286275;stroke:none;stroke-width:5.6693;stroke-opacity:0.937255" />
    <path
       transform="matrix(0.26458333,0,0,0.26458333,22.486328,52.291016)"
       inkscape:connector-curvature="0"
       id="path1475"
       d="m 410.43761,671.04289 c -32.00741,1.49775 -65.31032,2.88902 -95.23055,15.31012 -6.77075,1.88556 -4.49607,9.36357 1.25874,10.61844 34.21824,12.71113 71.79987,6.70083 107.35239,5.15731 16.47561,-3.00794 36.72156,-0.4151 49.95914,-12.32308 3.60424,-8.48307 -10.35274,-10.43216 -15.61001,-12.85971 -15.39003,-5.04829 -31.62696,-6.21821 -47.72971,-5.90308 z m -3.11332,6.30161 c 9.73032,0.99576 24.8602,-1.78595 29.96128,8.68889 -0.81102,10.74315 -15.7688,10.33496 -23.51367,12.51248 -18.34231,1.94701 -38.7179,4.23705 -55.82671,-3.38559 -6.88039,-8.26 7.6033,-12.83462 13.32139,-14.2684 11.81145,-2.71142 23.96224,-3.44371 36.05771,-3.54738 z"
       style="fill:#882aa1;fill-opacity:0.286275;stroke:none;stroke-width:5.6693;stroke-opacity:0.937255" />
    <path
       transform="matrix(0.26458333,0,0,0.26458333,22.486328,52.291016)"
       inkscape:connector-curvature="0"
       id="path1477"
       d="m 380.46449,632.14412 c -8.30841,1.41058 -21.20358,-1.5014 -26.26397,6.85405 7.69032,7.51096 21.17843,6.8732 31.56727,7.69846 11.86675,-0.77811 26.33932,0.97046 35.99063,-6.99609 -0.9671,-6.9651 -12.75103,-5.14001 -18.0841,-6.72778 -7.71035,-0.74238 -15.46578,-0.98918 -23.20983,-0.82864 z"
       style="fill:#882aa1;fill-opacity:0.286275;stroke:none;stroke-width:5.6693;stroke-opacity:0.937255" />
    <path
       transform="matrix(0.26458333,0,0,0.26458333,22.486328,52.291016)"
       inkscape:connector-curvature="0"
       id="path1479"
       d="m 404.02945,731.95982 c -14.48166,1.08514 -31.25207,1.88955 -42.79337,11.40368 2.01608,5.95157 12.41725,2.97324 17.18823,4.13232 20.7545,-1.12926 42.78225,1.76611 62.57436,-5.58442 -8.22026,-9.86997 -24.68025,-9.84408 -36.96922,-9.95158 z"
       style="fill:#882aa1;fill-opacity:0.286275;stroke:none;stroke-width:5.6693;stroke-opacity:0.937255" />
    <path
       transform="matrix(0.26458333,0,0,0.26458333,22.486328,52.291016)"
       inkscape:connector-curvature="0"
       id="path1481"
       d="m 168.07203,601.73301 c -18.95807,5.02242 -29.36166,24.76541 -39.35649,40.06281 -22.84026,38.97882 -26.54389,89.30433 -8.94932,130.92918 4.28849,11.34753 18.6482,21.44598 29.61798,11.94821 20.4098,-17.6989 22.60846,-46.97289 30.33967,-71.26122 7.04888,-30.89884 14.3077,-63.61395 7.74624,-95.17325 -3.41103,-7.5568 -10.40809,-16.26703 -19.39808,-16.50573 z"
       style="fill:#892b9f;fill-opacity:0.854902;stroke:none;stroke-width:5.6693;stroke-opacity:0.937255" />
    <path
       transform="matrix(0.26458333,0,0,0.26458333,22.486328,52.291016)"
       inkscape:connector-curvature="0"
       id="path1483"
       d="m 401.96969,682.55705 c -11.96831,1.14483 -26.44209,-0.11768 -36.36154,7.20128 3.90565,5.09666 13.6558,4.43367 19.92681,5.06825 14.55354,-1.48786 31.42686,1.30869 44.26522,-6.60715 0.0532,-6.84398 -11.63761,-4.3886 -16.20584,-5.51244 -3.87311,-0.13148 -7.74941,-0.19071 -11.62465,-0.14994 z"
       style="fill:#892b9f;fill-opacity:0.854902;stroke:none;stroke-width:5.6693;stroke-opacity:0.937255" />
    <g
       transform="translate(-0.41447877,-6.2150803)"
       id="g1552">
      <path
         inkscape:connector-curvature="0"
         id="path1520"
         d="m 141.67841,165.05886 c -0.83448,0.62488 -0.89113,1.93695 -1.20363,2.90345 -0.18033,0.60713 -0.33541,1.60263 -0.7103,1.90815 -1.1451,-1.33878 -2.02421,-2.91335 -3.381,-4.06356 -0.88895,0.27043 -1.05753,1.56822 -0.17088,1.94537 1.18811,1.51519 3.10841,3.01881 2.86361,5.14895 -0.54876,2.37778 -1.41624,5.02068 -0.23179,7.35099 1.76657,1.01383 3.58272,-1.04228 3.62829,-2.74692 0.43621,-2.25519 -1.19849,-4.22919 -1.3608,-6.38295 0.28245,-1.95593 1.46217,-3.76486 1.42001,-5.74903 -0.21557,-0.21796 -0.54821,-0.33838 -0.85351,-0.31445 z m -1.17969,9.6289 c 0.76161,1.2882 0.87509,3.37661 -0.60547,4.20313 -0.33902,-1.49735 0.15232,-2.99999 0.45898,-4.45703 0.0488,0.0846 0.0977,0.16927 0.14649,0.2539 z"
         style="color:#000000;font-style:normal;font-variant:normal;font-weight:normal;font-stretch:normal;font-size:medium;line-height:normal;font-family:sans-serif;font-variant-ligatures:normal;font-variant-position:normal;font-variant-caps:normal;font-variant-numeric:normal;font-variant-alternates:normal;font-variant-east-asian:normal;font-feature-settings:normal;font-variation-settings:normal;text-indent:0;text-align:start;text-decoration:none;text-decoration-line:none;text-decoration-style:solid;text-decoration-color:#000000;letter-spacing:normal;word-spacing:normal;text-transform:none;writing-mode:lr-tb;direction:ltr;text-orientation:mixed;dominant-baseline:auto;baseline-shift:baseline;text-anchor:start;white-space:normal;shape-padding:0;shape-margin:0;inline-size:0;clip-rule:nonzero;display:inline;overflow:visible;visibility:visible;opacity:1;isolation:auto;mix-blend-mode:normal;color-interpolation:sRGB;color-interpolation-filters:linearRGB;solid-color:#000000;solid-opacity:1;vector-effect:none;fill:#000000;fill-opacity:1;fill-rule:nonzero;stroke:none;stroke-width:1.5;stroke-linecap:butt;stroke-linejoin:miter;stroke-miterlimit:4;stroke-dasharray:none;stroke-dashoffset:0;stroke-opacity:1;color-rendering:auto;image-rendering:auto;shape-rendering:auto;text-rendering:auto;enable-background:accumulate;stop-color:#000000;stop-opacity:1" />
      <text
         id="text1516"
         y="172.15198"
         x="159.70973"
         style="font-style:normal;font-variant:normal;font-weight:normal;font-stretch:normal;font-size:10.5833px;line-height:1;font-family:'Daniel Black';-inkscape-font-specification:'Daniel Black, ';text-align:center;letter-spacing:0px;word-spacing:0px;text-anchor:middle;stroke-width:0.264583"
         xml:space="preserve"><tspan
           style="font-style:normal;font-variant:normal;font-weight:normal;font-stretch:normal;font-family:'Daniel Black';-inkscape-font-specification:'Daniel Black, ';stroke-width:0.264583"
           y="172.15198"
           x="159.70973"
           id="tspan1514"
           sodipodi:role="line">(x, y)</tspan></text>
    </g>
  </g>
</svg>
